Project_1/04_counter_schematic/simulation/qsim/counter_schematic.msim.vcd
$comment
	File created using the following command:
		vcd file counter_schematic.msim.vcd -direction
$end
$date
	Thu Jan 07 21:09:38 2016
$end
$version
	ModelSim Version 10.1e
$end
$timescale
	1ps
$end
$scope module count_down_schematic_vlg_vec_tst $end
$var reg 1 ! CLOCK $end
$var reg 1 " RESET $end
$var wire 1 # out [3] $end
$var wire 1 $ out [2] $end
$var wire 1 % out [1] $end
$var wire 1 & out [0] $end
$var wire 1 ' sampler $end
$scope module i1 $end
$var wire 1 ( gnd $end
$var wire 1 ) vcc $end
$var wire 1 * unknown $end
$var tri1 1 + devclrn $end
$var tri1 1 , devpor $end
$var tri1 1 - devoe $end
$var wire 1 . out[3]~output_o $end
$var wire 1 / out[2]~output_o $end
$var wire 1 0 out[1]~output_o $end
$var wire 1 1 out[0]~output_o $end
$var wire 1 2 CLOCK~input_o $end
$var wire 1 3 inst3~0_combout $end
$var wire 1 4 RESET~input_o $end
$var wire 1 5 inst3~q $end
$var wire 1 6 inst6~combout $end
$var wire 1 7 inst2~q $end
$var wire 1 8 inst1~0_combout $end
$var wire 1 9 inst1~q $end
$var wire 1 : inst18~0_combout $end
$var wire 1 ; inst~q $end
$upscope $end
$upscope $end
$enddefinitions $end
#0
$dumpvars
0!
0"
0&
0%
0$
0#
x'
0(
1)
x*
1+
1,
1-
0.
0/
00
01
02
13
04
05
16
07
18
09
1:
0;
$end
#10000
1!
12
0'
#20000
0!
02
1'
#30000
1!
12
0'
#40000
0!
02
1'
#50000
1!
12
0'
#60000
0!
02
1'
#70000
1!
12
0'
#80000
0!
02
1'
#90000
1!
12
0'
#100000
0!
02
1'
#110000
1!
12
0'
#120000
0!
02
1'
#130000
1!
12
0'
#140000
0!
02
1'
#150000
1!
12
0'
#160000
0!
02
1'
#170000
1"
1!
14
12
0'
#180000
0!
02
1'
#190000
1!
12
0'
1;
19
17
15
03
1.
1/
10
11
1#
1$
1%
1&
#200000
0!
02
1'
#210000
1!
12
0'
05
13
06
01
0&
#220000
0!
02
1'
#230000
1!
12
0'
07
15
03
00
11
0%
1&
#240000
0!
02
1'
#250000
1!
12
0'
05
13
16
08
01
0&
#260000
0!
02
1'
#270000
1!
12
0'
09
17
15
03
0/
10
11
0$
1%
1&
#280000
0!
02
1'
#290000
1!
12
0'
05
13
06
01
0&
#300000
0!
02
1'
#310000
1!
12
0'
07
15
03
00
11
0%
1&
#320000
0!
02
1'
#330000
1!
12
0'
05
13
16
18
0:
01
0&
#340000
0!
02
1'
#350000
1!
12
0'
0;
19
17
15
03
0.
1/
10
11
0#
1$
1%
1&
#360000
0!
02
1'
#370000
1!
12
0'
05
13
06
01
0&
#380000
0!
02
1'
#390000
1!
12
0'
07
15
03
00
11
0%
1&
#400000
0!
02
1'
#410000
1!
12
0'
05
13
16
08
01
0&
#420000
0!
02
1'
#430000
1!
12
0'
09
17
15
03
0/
10
11
0$
1%
1&
#440000
0!
02
1'
#450000
1!
12
0'
05
13
06
01
0&
#460000
0!
02
1'
#470000
1!
12
0'
07
15
03
00
11
0%
1&
#480000
0!
02
1'
#490000
1!
12
0'
05
13
16
18
1:
01
0&
#500000
0!
02
1'
#510000
1!
12
0'
1;
19
17
15
03
1.
1/
10
11
1#
1$
1%
1&
#520000
0!
02
1'
#530000
1!
12
0'
05
13
06
01
0&
#540000
0!
02
1'
#550000
1!
12
0'
07
15
03
00
11
0%
1&
#560000
0!
02
1'
#570000
1!
12
0'
05
13
16
08
01
0&
#580000
0!
02
1'
#590000
1!
12
0'
09
17
15
03
0/
10
11
0$
1%
1&
#600000
0!
02
1'
#610000
1!
12
0'
05
13
06
01
0&
#620000
0!
02
1'
#630000
1!
12
0'
07
15
03
00
11
0%
1&
#640000
0!
02
1'
#650000
1!
12
0'
05
13
16
18
0:
01
0&
#660000
0!
02
1'
#670000
1!
12
0'
0;
19
17
15
03
0.
1/
10
11
0#
1$
1%
1&
#680000
0!
02
1'
#690000
1!
12
0'
05
13
06
01
0&
#700000
0!
02
1'
#710000
1!
12
0'
07
15
03
00
11
0%
1&
#720000
0!
02
1'
#730000
1!
12
0'
05
13
16
08
01
0&
#740000
0!
02
1'
#750000
1!
12
0'
09
17
15
03
0/
10
11
0$
1%
1&
#760000
0!
02
1'
#770000
1!
12
0'
05
13
06
01
0&
#780000
0"
0!
04
02
1'
07
16
18
1:
00
0%
#790000
1!
12
0'
#800000
0!
02
1'
#810000
1!
12
0'
#820000
0!
02
1'
#830000
1!
12
0'
#840000
0!
02
1'
#850000
1!
12
0'
#860000
0!
02
1'
#870000
1!
12
0'
#880000
0!
02
1'
#890000
1!
12
0'
#900000
0!
02
1'
#910000
1!
12
0'
#920000
0!
02
1'
#930000
1!
12
0'
#940000
0!
02
1'
#950000
1!
12
0'
#960000
0!
02
1'
#970000
1!
12
0'
#980000
0!
02
1'
#990000
1!
12
0'
