Project_1/__report__/diagrams/simulation/qsim/diagram.msim.vcd
$comment
	File created using the following command:
		vcd file diagram.msim.vcd -direction
$end
$date
	Thu Jan 14 14:33:45 2016
$end
$version
	ModelSim Version 10.1e
$end
$timescale
	1ps
$end
$scope module ripple_down_vlg_vec_tst $end
$var reg 1 ! CLOCK $end
$var reg 1 " RESET $end
$var wire 1 # Q_0 $end
$var wire 1 $ Q_1 $end
$var wire 1 % Q_2 $end
$var wire 1 & Q_3 $end
$var wire 1 ' sampler $end
$scope module i1 $end
$var wire 1 ( gnd $end
$var wire 1 ) vcc $end
$var wire 1 * unknown $end
$var tri1 1 + devclrn $end
$var tri1 1 , devpor $end
$var tri1 1 - devoe $end
$var wire 1 . ~QUARTUS_CREATED_GND~I_combout $end
$var wire 1 / CLOCK~input_o $end
$var wire 1 0 inst3~0_combout $end
$var wire 1 1 RESET~input_o $end
$var wire 1 2 inst3~q $end
$var wire 1 3 inst2~0_combout $end
$var wire 1 4 inst2~feeder_combout $end
$var wire 1 5 inst2~q $end
$var wire 1 6 inst1~0_combout $end
$var wire 1 7 inst1~feeder_combout $end
$var wire 1 8 inst1~q $end
$var wire 1 9 inst~0_combout $end
$var wire 1 : inst~feeder_combout $end
$var wire 1 ; inst~q $end
$upscope $end
$upscope $end
$enddefinitions $end
#0
$dumpvars
0!
0"
0#
0$
0%
0&
x'
0(
1)
x*
1+
1,
1-
0.
0/
10
01
02
13
14
05
16
17
08
19
1:
0;
$end
#10000
1!
1/
0'
#20000
0!
0/
1'
#30000
1!
1/
0'
#40000
0!
0/
1'
#50000
1!
1/
0'
#60000
0!
0/
1'
#70000
1!
1/
0'
#80000
0!
0/
1'
#90000
1!
1/
0'
#100000
1"
0!
11
0/
1'
#110000
1!
1/
0'
12
00
1#
15
03
1$
04
18
06
1%
07
1;
09
1&
0:
#120000
0!
0/
1'
#130000
1!
1/
0'
02
10
0#
#140000
0!
0/
1'
#150000
1!
1/
0'
12
00
1#
05
13
0$
14
#160000
0!
0/
1'
#170000
1!
1/
0'
02
10
0#
#180000
0!
0/
1'
#190000
1!
1/
0'
12
00
1#
15
03
1$
04
08
16
0%
17
#200000
0!
0/
1'
#210000
1!
1/
0'
02
10
0#
#220000
0!
0/
1'
#230000
1!
1/
0'
12
00
1#
05
13
0$
14
#240000
0!
0/
1'
#250000
1!
1/
0'
02
10
0#
#260000
0!
0/
1'
#270000
1!
1/
0'
12
00
1#
15
03
1$
04
18
06
1%
07
0;
19
0&
1:
#280000
0!
0/
1'
#290000
1!
1/
0'
02
10
0#
#300000
0!
0/
1'
#310000
1!
1/
0'
12
00
1#
05
13
0$
14
#320000
0!
0/
1'
#330000
1!
1/
0'
02
10
0#
#340000
0!
0/
1'
#350000
1!
1/
0'
12
00
1#
15
03
1$
04
08
16
0%
17
#360000
0!
0/
1'
#370000
1!
1/
0'
02
10
0#
#380000
0!
0/
1'
#390000
1!
1/
0'
12
00
1#
05
13
0$
14
#400000
0!
0/
1'
#410000
1!
1/
0'
02
10
0#
#420000
0!
0/
1'
#430000
1!
1/
0'
12
00
1#
15
03
1$
04
18
06
1%
07
1;
09
1&
0:
#440000
0!
0/
1'
#450000
1!
1/
0'
02
10
0#
#460000
0!
0/
1'
#470000
1!
1/
0'
12
00
1#
05
13
0$
14
#480000
0!
0/
1'
#490000
1!
1/
0'
02
10
0#
#500000
0!
0/
1'
#510000
1!
1/
0'
12
00
1#
15
03
1$
04
08
16
0%
17
#520000
0!
0/
1'
#530000
1!
1/
0'
02
10
0#
#540000
0!
0/
1'
#550000
1!
1/
0'
12
00
1#
05
13
0$
14
#560000
0!
0/
1'
#570000
1!
1/
0'
02
10
0#
#580000
0!
0/
1'
#590000
1!
1/
0'
12
00
1#
15
03
1$
04
18
06
1%
07
0;
19
0&
1:
#600000
0!
0/
1'
#610000
1!
1/
0'
02
10
0#
#620000
0!
0/
1'
#630000
1!
1/
0'
12
00
1#
05
13
0$
14
#640000
0!
0/
1'
#650000
1!
1/
0'
02
10
0#
#660000
0"
0!
01
0/
1'
08
16
0%
17
#670000
1!
1/
0'
#680000
0!
0/
1'
#690000
1!
1/
0'
#700000
0!
0/
1'
#710000
1!
1/
0'
#720000
0!
0/
1'
#730000
1!
1/
0'
#740000
0!
0/
1'
#750000
1!
1/
0'
#760000
0!
0/
1'
#770000
1!
1/
0'
#780000
0!
0/
1'
#790000
1!
1/
0'
#800000
0!
0/
1'
#810000
1!
1/
0'
#820000
1"
0!
11
0/
1'
#830000
1!
1/
0'
12
00
1#
15
03
1$
04
18
06
1%
07
1;
09
1&
0:
#840000
0!
0/
1'
#850000
1!
1/
0'
02
10
0#
#860000
0!
0/
1'
#870000
1!
1/
0'
12
00
1#
05
13
0$
14
#880000
0!
0/
1'
#890000
1!
1/
0'
02
10
0#
#900000
0!
0/
1'
#910000
1!
1/
0'
12
00
1#
15
03
1$
04
08
16
0%
17
#920000
0!
0/
1'
#930000
1!
1/
0'
02
10
0#
#940000
0!
0/
1'
#950000
1!
1/
0'
12
00
1#
05
13
0$
14
#960000
0!
0/
1'
#970000
1!
1/
0'
02
10
0#
#980000
0!
0/
1'
#990000
1!
1/
0'
12
00
1#
15
03
1$
04
18
06
1%
07
0;
19
0&
1:
