Project_2/____gtkwave____INTERLOCK____.vcd
$date
	Thu Jan 28 23:30:31 2016
$end
$version
	Icarus Verilog
$end
$timescale
	1s
$end
$scope module interlock_testBench $end
$scope module dut $end
$var wire 1 ! testPressure $end
$var wire 1 " select $end
$var wire 1 # reset $end
$var wire 1 $ oport $end
$var wire 1 % limitError $end
$var wire 1 & iport $end
$var wire 1 ' fill $end
$var wire 1 ( drain $end
$var wire 1 ) diffError $end
$var wire 1 * depart $end
$var wire 1 + clock $end
$var wire 1 , arrive $end
$var wire 4 - PS [3:0] $end
$var reg 7 . HEX0 [6:0] $end
$var reg 7 / HEX1 [6:0] $end
$var reg 7 0 HEX2 [6:0] $end
$var reg 7 1 HEX3 [6:0] $end
$var reg 7 2 HEX4 [6:0] $end
$var reg 7 3 HEX5 [6:0] $end
$var reg 10 4 LED [9:0] $end
$var reg 4 5 NS [3:0] $end
$var reg 27 6 count [26:0] $end
$upscope $end
$upscope $end
$enddefinitions $end
#0
$dumpvars
bx 6
b0 5
b0 4
b10010 3
b111 2
b1000 1
b101111 0
b111 /
b1111111 .
b0 -
0,
x+
0*
0)
0(
0'
0&
0%
0$
1#
0"
0!
$end
#10
b0 6
1+
#20
0+
#30
1+
#40
0+
#50
1+
#60
0+
#70
1+
#80
0+
0#
#90
1+
#100
0+
#110
1+
#120
b1 5
0+
1,
1"
#130
b10001 4
b1111111 /
b1100 0
b110 1
b101111 2
b1100 3
b1 6
b1 -
1+
#140
0+
#150
b1 4
b10 6
1+
#160
0+
#170
b10001 4
b11 6
1+
#180
0+
#190
b1 4
b10 5
b100 6
1+
#200
0+
#210
b1110 .
b111111 /
b100001 0
b1111001 1
b100011 2
b1011 3
b0 6
b10 -
1+
#220
0+
0,
#230
1+
#240
0+
#250
1+
#260
0+
#270
1+
#280
b11 5
0+
1'
#290
b10001 4
b1111111 .
b1111111 /
b1111001 0
b1111011 2
b1110 3
b1 6
b11 -
1+
#300
0+
#310
b1 4
b10 6
1+
#320
0+
1!
#330
b10001 4
b11 6
1+
#340
0+
#350
b1000000001 4
b1011 5
1%
b100 6
1+
#360
0+
0!
#370
b1000000000 4
b101111 /
b1000000 0
b101111 1
b101111 2
b110 3
b0 6
b1011 -
1+
#380
0+
0'
#390
1+
#400
0+
#410
1+
#420
0+
1$
#430
1+
#440
0+
#450
1+
#460
0+
0$
#470
1+
#480
0+
#490
1+
#500
b0 4
0%
b111 /
b101111 0
b1000 1
b111 2
b10010 3
b0 5
b0 -
0+
1#
#510
1+
#520
0+
#530
1+
#540
0+
0#
#550
1+
#560
0+
#570
1+
#580
b1 5
0+
1,
#590
b10001 4
b1111111 /
b1100 0
b110 1
b101111 2
b1100 3
b1 6
b1 -
1+
#600
0+
#610
b1 4
b10 6
1+
#620
0+
#630
b10001 4
b11 6
1+
#640
0+
#650
b1 4
b10 5
b100 6
1+
#660
0+
#670
b1110 .
b111111 /
b100001 0
b1111001 1
b100011 2
b1011 3
b0 6
b10 -
1+
#680
0+
0,
#690
1+
#700
0+
#710
1+
#720
0+
#730
1+
#740
b11 5
0+
1'
#750
b10001 4
b1111111 .
b1111111 /
b1111001 0
b1111011 2
b1110 3
b1 6
b11 -
1+
#760
0+
#770
b1 4
b10 6
1+
#780
0+
0'
#790
b10001 4
b11 6
1+
#800
0+
#810
b1 4
b100 6
1+
#820
0+
#830
b10001 4
b101 6
1+
#840
0+
#850
b1 4
b101 5
b110 6
1+
#860
0+
#870
b101011 /
b110 0
b1100 1
b100011 2
b1000000 3
b0 6
b101 -
1+
#880
b1001 5
0+
1$
#890
b101 4
b110 .
b10010 /
b100011 0
b1111001 1
b100111 2
b1001 -
1+
#900
0+
#910
1+
#920
b110 5
0+
0$
#930
b1 4
b100001 .
b111111 /
b100001 0
b100011 2
b1011 3
b110 -
1+
#940
0+
#950
1+
#960
b111 5
0+
1(
#970
b10001 4
b1111111 .
b101011 /
b1111011 0
b1000 1
b101111 2
b100001 3
b1 6
b111 -
1+
#980
0+
#990
b1 4
b10 6
1+
#1000
0+
#1010
b10001 4
b11 6
1+
#1020
0+
1!
#1030
b1 4
b100 6
1+
#1040
0+
#1050
b1000010001 4
b1011 5
1%
b101 6
1+
#1060
0+
0!
#1070
b1000000000 4
b101111 /
b1000000 0
b101111 1
b110 3
b0 6
b1011 -
1+
#1080
0+
0(
#1090
1+
#1100
0+
#1110
1+
#1120
0+
1&
#1130
1+
#1140
0+
#1150
1+
#1160
0+
0&
