Project_2/____gtkwave____DIFF_PRESSURE____.vcd
$date
	Mon Jan 25 16:21:18 2016
$end
$version
	Icarus Verilog
$end
$timescale
	1s
$end
$scope module diff_pressure_testBench $end
$scope module dut $end
$var wire 1 ! SW $end
$var wire 1 " clk $end
$var wire 1 # key $end
$var wire 1 $ reset $end
$var wire 1 % singleKey $end
$var wire 1 & PS $end
$var reg 1 ' NS $end
$var reg 1 ( diff $end
$upscope $end
$upscope $end
$scope module interlock_testBench $end
$scope module dut $end
$var wire 1 ) testPressure $end
$var wire 1 * select $end
$var wire 1 + reset $end
$var wire 1 , oport $end
$var wire 1 - limitError $end
$var wire 1 . iport $end
$var wire 1 / fill $end
$var wire 1 0 drain $end
$var wire 1 1 diffError $end
$var wire 1 2 depart $end
$var wire 1 3 clock $end
$var wire 1 4 arrive $end
$var wire 4 5 PS [3:0] $end
$var reg 7 6 HEX0 [6:0] $end
$var reg 7 7 HEX1 [6:0] $end
$var reg 7 8 HEX2 [6:0] $end
$var reg 7 9 HEX3 [6:0] $end
$var reg 7 : HEX4 [6:0] $end
$var reg 7 ; HEX5 [6:0] $end
$var reg 10 < LED [9:0] $end
$var reg 4 = NS [3:0] $end
$var reg 27 > count [26:0] $end
$upscope $end
$upscope $end
$scope module limit_pressure_testBench $end
$scope module dut $end
$var wire 1 ? SW $end
$var wire 1 @ clk $end
$var wire 1 A key $end
$var wire 1 B reset $end
$var wire 1 C singleKey $end
$var wire 1 D PS $end
$var reg 1 E NS $end
$var reg 1 F limit $end
$upscope $end
$upscope $end
$enddefinitions $end
#0
$dumpvars
0F
0E
0D
0C
1B
xA
0@
x?
bx >
b0 =
b0xxxxxxxx <
bx ;
bx :
bx 9
bx 8
bx 7
bx 6
b0 5
04
x3
02
01
00
0/
0.
0-
0,
1+
0*
0)
0(
0'
0&
0%
1$
x#
0"
x!
$end
#10
b1111111 6
b111 7
b101111 8
b1000 9
b111 :
b10010 ;
b0 >
b0 <
1@
13
1"
#20
0@
03
0"
#30
1@
13
1"
#40
0@
0+
03
0"
0A
1?
0B
0#
0$
0!
#50
1@
13
1"
#60
0@
03
0"
#70
1@
13
1"
#80
0@
14
03
0"
#90
1@
13
1"
#100
0@
03
0"
1A
1#
#110
1E
1C
1%
1@
13
1"
#120
0@
03
0"
#130
1F
0C
0%
1D
1@
13
1"
#140
0@
03
0"
0A
0#
#150
1@
13
1"
#160
0@
03
0"
#170
1@
13
1"
#180
0@
03
0"
1A
1#
04
#190
0E
1C
1%
1@
13
1"
#200
0@
03
0"
1/
#210
0F
0C
0%
0D
1@
13
1"
#220
0@
03
0"
0A
0#
#230
1@
13
1"
#240
0@
03
0"
#250
1@
13
1"
#260
0@
03
0"
1A
1#
#270
1E
1C
1%
1@
13
1"
#280
0@
03
0"
#290
1F
0C
0%
1D
1@
13
1"
#300
0@
03
0"
0A
0#
#310
1@
13
1"
#320
0@
03
0"
#330
1@
13
1"
#340
0@
03
0"
1A
1#
0/
#350
0E
1C
1%
1@
13
1"
#360
0@
03
0"
1,
#370
0F
0C
0%
0D
1@
13
1"
#380
0@
03
0"
#390
1@
13
1"
#400
0@
03
0"
0A
0#
0,
#410
1@
13
1"
#420
0@
03
0"
1A
1#
10
#430
1E
1C
1%
1@
13
1"
#440
0@
03
0"
0A
0#
#450
1F
0C
0%
1D
1@
13
1"
#460
0@
03
0"
1A
1#
#470
0E
1C
1%
1@
13
1"
#480
0@
03
0"
0A
0#
#490
0F
0C
0%
0D
1@
13
1"
#500
0@
03
0"
1A
1#
#510
1E
1C
1%
1@
13
1"
#520
0@
03
0"
0A
0#
#530
1F
0C
0%
1D
1@
13
1"
#540
0F
0D
0@
03
0"
1B
1$
#550
1@
13
1"
#560
0@
03
0"
#570
1@
13
1"
#580
0@
03
0"
00
#590
1@
13
1"
#600
0@
03
0"
1A
1#
1.
#610
1@
13
1"
#620
0@
03
0"
0A
0#
#630
1@
13
1"
#640
0@
03
0"
1A
1#
0.
#650
1@
13
1"
#660
0@
03
0"
0A
0#
1.
#670
1@
13
1"
#680
0@
03
0"
1A
1#
#690
1@
13
1"
#700
0@
03
0"
0A
0#
12
#710
1@
13
1"
#720
0@
03
0"
1A
1#
#730
1@
13
1"
#740
0E
0@
03
0"
0B
0$
#750
1E
1C
1%
1@
13
1"
#760
0@
03
0"
0.
#770
0C
1F
0%
1D
1@
13
1"
#780
0@
03
0"
0A
0#
#790
1@
13
1"
#800
0@
03
0"
1A
1#
#810
0E
1C
1%
1@
13
1"
#820
0@
03
0"
0A
0#
#830
0F
0C
0%
0D
1@
13
1"
#840
0@
03
0"
1A
1#
#850
1E
1C
1%
1@
13
1"
#860
0@
03
0"
0A
0#
#870
1F
0C
0%
1D
1@
13
1"
#880
0@
03
0"
1A
1#
#890
0E
1C
1%
1@
13
1"
#900
0@
03
0"
0A
0#
#910
0F
0C
0%
0D
1@
13
1"
#920
0@
03
0"
1A
1#
#930
1E
1C
1%
1@
13
1"
