Project_2/____gtkwave____INTERLOCK____.vcd
$date
	Mon Jan 25 18:26:30 2016
$end
$version
	Icarus Verilog
$end
$timescale
	1s
$end
$scope module interlock_testBench $end
$scope module dut $end
$var wire 1 ! testPressure $end
$var wire 1 " select $end
$var wire 1 # reset $end
$var wire 1 $ oport $end
$var wire 1 % limitError $end
$var wire 1 & iport $end
$var wire 1 ' fill $end
$var wire 1 ( drain $end
$var wire 1 ) diffError $end
$var wire 1 * depart $end
$var wire 1 + clock $end
$var wire 1 , arrive $end
$var wire 4 - PS [3:0] $end
$var reg 7 . HEX0 [6:0] $end
$var reg 7 / HEX1 [6:0] $end
$var reg 7 0 HEX2 [6:0] $end
$var reg 7 1 HEX3 [6:0] $end
$var reg 7 2 HEX4 [6:0] $end
$var reg 7 3 HEX5 [6:0] $end
$var reg 10 4 LED [9:0] $end
$var reg 4 5 NS [3:0] $end
$var reg 27 6 count [26:0] $end
$upscope $end
$upscope $end
$enddefinitions $end
#0
$dumpvars
bx 6
b0 5
b0 4
b10010 3
b111 2
b1000 1
b101111 0
b111 /
b1111111 .
b0 -
0,
x+
0*
0)
0(
0'
0&
0%
0$
1#
0"
0!
$end
#10
b0 6
1+
#20
0+
#30
1+
#40
0+
0#
#50
1+
#60
0+
#70
1+
#80
b1 5
0+
1,
#90
b10001 4
b1111111 /
b1100 0
b110 1
b101111 2
b1100 3
b1 6
b1 -
1+
#100
0+
#110
b1 4
b10 6
1+
#120
0+
#130
b10001 4
b11 6
1+
#140
0+
#150
b1 4
b10 5
b100 6
1+
#160
0+
#170
b1110 .
b111111 /
b100001 0
b1111001 1
b100011 2
b1011 3
b0 6
b10 -
1+
#180
0+
0,
#190
1+
#200
0+
#210
1+
#220
0+
#230
1+
#240
b11 5
0+
1'
#250
b10001 4
b1111111 .
b1111111 /
b1111001 0
b1111011 2
b1110 3
b1 6
b11 -
1+
#260
0+
#270
b1 4
b10 6
1+
#280
0+
#290
b10001 4
b11 6
1+
#300
0+
#310
b1 4
b100 6
1+
#320
0+
#330
b10001 4
b101 6
1+
#340
0+
#350
b1 4
b101 5
b110 6
1+
#360
0+
#370
b101011 /
b110 0
b1100 1
b100011 2
b1000000 3
b0 6
b101 -
1+
#380
0+
0'
#390
1+
#400
b1001 5
0+
1$
#410
b101 4
b110 .
b10010 /
b100011 0
b1111001 1
b100111 2
b1001 -
1+
#420
0+
#430
1+
#440
b110 5
0+
0$
#450
b1 4
b100001 .
b111111 /
b100001 0
b100011 2
b1011 3
b110 -
1+
#460
b111 5
0+
1(
#470
b10001 4
b1111111 .
b101011 /
b1111011 0
b1000 1
b101111 2
b100001 3
b1 6
b111 -
1+
#480
0+
#490
b1 4
b10 6
1+
#500
0+
#510
b10001 4
b11 6
1+
#520
0+
#530
b1 4
b100 6
1+
#540
0+
#550
b10001 4
b101 6
1+
#560
0+
#570
b1 4
b110 6
1+
#580
0+
#590
b10001 4
b100 5
b111 6
1+
#600
0+
#610
b110 0
b1100 1
b100011 2
b1111011 3
b0 6
b100 -
1+
#620
0+
0(
#630
1+
#640
b1000 5
0+
1&
#650
b11001 4
b110 .
b10010 /
b100011 0
b1111001 1
b100111 2
b1000 -
1+
#660
0+
#670
1+
#680
b0 5
0+
0&
#690
b0 4
b1111111 .
b111 /
b101111 0
b1000 1
b111 2
b10010 3
b0 -
1+
#700
b1010 5
0+
1&
#710
b1000 4
b100001 /
b100011 2
b11 3
b1010 -
1+
#720
0+
#730
1+
#740
0+
1*
#750
1+
#760
0+
#770
1+
#780
0+
#790
1+
#800
b1 5
0+
0&
#810
b10010 4
b1111111 /
b1100 0
b110 1
b101111 2
b1100 3
b1 6
b1 -
1+
#820
0+
#830
b10 4
b10 6
1+
#840
0+
#850
b10010 4
b11 6
1+
#860
0+
#870
b10 4
b10 5
b100 6
1+
#880
0+
#890
b1110 .
b111111 /
b100001 0
b1111001 1
b100011 2
b1011 3
b0 6
b10 -
1+
#900
0+
#910
1+
#920
0+
#930
1+
#940
0+
#950
1+
#960
0+
#970
1+
#980
0+
#990
1+
#1000
0+
0*
#1010
1+
#1020
0+
#1030
1+
#1040
b11 5
0+
1'
#1050
b10010 4
b1111111 .
b1111111 /
b1111001 0
b1111011 2
b1110 3
b1 6
b11 -
1+
#1060
0+
#1070
b10 4
b10 6
1+
#1080
0+
#1090
b10010 4
b11 6
1+
#1100
0+
#1110
b10 4
b100 6
1+
#1120
0+
#1130
b10010 4
b101 6
1+
#1140
0+
#1150
b10 4
b101 5
b110 6
1+
#1160
0+
#1170
b101011 /
b110 0
b1100 1
b100011 2
b1000000 3
b0 6
b101 -
1+
#1180
0+
0'
#1190
1+
#1200
b1001 5
0+
1$
#1210
b110 4
b110 .
b10010 /
b100011 0
b1111001 1
b100111 2
b1001 -
1+
#1220
0+
#1230
1+
#1240
b110 5
0+
0$
#1250
b10 4
b100001 .
b111111 /
b100001 0
b100011 2
b1011 3
b110 -
1+
#1260
b111 5
0+
1(
#1270
b10010 4
b1111111 .
b101011 /
b1111011 0
b1000 1
b101111 2
b100001 3
b1 6
b111 -
1+
#1280
0+
#1290
b10 4
b10 6
1+
#1300
0+
0(
#1310
b10010 4
b11 6
1+
#1320
0+
1&
#1330
b10 4
b100 6
1+
#1340
0+
#1350
b10010 4
b101 6
1+
#1360
0+
0&
#1370
b10 4
b110 6
1+
